%YAML 1.1
%TAG !u! tag:unity3d.com,2011:
--- !u!1045 &1
EditorBuildSettings:
  m_ObjectHideFlags: 0
  serializedVersion: 2
  m_Scenes:
  - enabled: 1
    path: Assets/Scenes/MovementTests.unity
    guid: 937bf86c6932dad49822f74b48d7ea0f
  - enabled: 1
    path: Assets/Scenes/ItemTests.unity
    guid: 2b45190b93aa27343a0ca8806dae7a45
  - enabled: 1
    path: Assets/Scenes/UI.unity
    guid: 2e5734141bdb73844bb71c83020f6692
  m_configObjects: {}
